Practical Day 4 – Peer review
…
Code

####Question 6####
#====routes that more than one airline flies====#

route_count <- flights|> group_by(origin, dest) |> summarise(num_airlines= n_distinct(carrier), .groups = "drop") |> filter(num_airlines>1)
cat("Routes that more than one airline flies")

Routes that more than one airline flies

Code

print(route_count)

# A tibble: 128 × 3
   origin dest  num_airlines
   <chr>  <chr>        <int>
 1 EWR    ATL              4
 2 EWR    AUS              2
 3 EWR    BDL              2
 4 EWR    BNA              2
 5 EWR    BOS              3
 6 EWR    BWI              2
 7 EWR    CHS              2
 8 EWR    CLE              2
 9 EWR    CLT              3
10 EWR    CVG              2
# ℹ 118 more rows
…
#====average arrival delay====#

route_delays <- flights|> filter(!is.na(arr_delay))|> group_by(origin, dest, carrier) |> summarise(aver_arr_delay= mean(arr_delay, na.rm=TRUE), .groups="drop")
route_delays <- route_delays %>%
  left_join(airlines, by = "carrier")
cat("The average arrival delay")

The average arrival delay

Code

print(route_delays)

# A tibble: 437 × 5
   origin dest  carrier aver_arr_delay name                    
   <chr>  <chr> <chr>            <dbl> <chr>                   
 1 EWR    ALB   EV               14.4  ExpressJet Airlines Inc.
 2 EWR    ANC   UA               -2.5  United Air Lines Inc.   
 3 EWR    ATL   9E               -6.25 Endeavor Air Inc.       
 4 EWR    ATL   DL               10.0  Delta Air Lines Inc.    
 5 EWR    ATL   EV               19.5  ExpressJet Airlines Inc.
 6 EWR    ATL   UA               10.5  United Air Lines Inc.   
 7 EWR    AUS   UA                4.28 United Air Lines Inc.   
 8 EWR    AUS   WN              -11.2  Southwest Airlines Co.  
 9 EWR    AVL   EV                8.80 ExpressJet Airlines Inc.
10 EWR    BDL   EV                6.78 ExpressJet Airlines Inc.
# ℹ 427 more rows
…
The worst and best average arrival delay

Code

print(route_performance)

# A tibble: 223 × 6
   origin dest  best_airline             best_delay worst_airline    worst_delay
   <chr>  <chr> <chr>                         <dbl> <chr>                  <dbl>
 1 EWR    ALB   ExpressJet Airlines Inc.      14.4  ExpressJet Airl…       14.4 
 2 EWR    ANC   United Air Lines Inc.         -2.5  United Air Line…       -2.5 
 3 EWR    ATL   Endeavor Air Inc.             -6.25 ExpressJet Airl…       19.5 
 4 EWR    AUS   Southwest Airlines Co.       -11.2  United Air Line…        4.28
 5 EWR    AVL   ExpressJet Airlines Inc.       8.80 ExpressJet Airl…        8.80
 6 EWR    BDL   ExpressJet Airlines Inc.       6.78 United Air Line…       22.6 
 7 EWR    BNA   Southwest Airlines Co.        -2.13 ExpressJet Airl…       17.7 
 8 EWR    BOS   ExpressJet Airlines Inc.      -4.01 JetBlue Airways         6.87
 9 EWR    BQN   United Air Lines Inc.         10.9  United Air Line…       10.9 
10 EWR    BTV   ExpressJet Airlines Inc.      12.2  ExpressJet Airl…       12.2 
# ℹ 213 more rows
…
